{
   "abstract" : "Use the Freedesktop.org base directory specification",
   "author" : [
      "Jaap Karssenberg <pardus@cpan.org>"
   ],
   "dynamic_config" : 0,
   "generated_by" : "Module::Build version 0.4205",
   "license" : [
      "perl_5"
   ],
   "meta-spec" : {
      "url" : "http://search.cpan.org/perldoc?CPAN::Meta::Spec",
      "version" : "2"
   },
   "name" : "File-BaseDir",
   "prereqs" : {
      "build" : {
         "requires" : {
            "File::Temp" : "0",
            "File::Which" : "0",
            "Module::Build" : "0.24",
            "Test::More" : "0"
         }
      },
      "runtime" : {
         "requires" : {
            "Carp" : "0",
            "Exporter" : "0",
            "File::Spec" : "0",
            "IPC::System::Simple" : "0"
         }
      }
   },
   "provides" : {
      "File::BaseDir" : {
         "file" : "lib/File/BaseDir.pm",
         "version" : "0.07"
      },
      "File::IconTheme" : {
         "file" : "lib/File/IconTheme.pm",
         "version" : "0.07"
      },
      "File::UserDirs" : {
         "file" : "lib/File/UserDirs.pm",
         "version" : "0.07"
      }
   },
   "release_status" : "stable",
   "resources" : {
      "license" : [
         "http://dev.perl.org/licenses/"
      ]
   },
   "version" : "0.07"
}
